Predicting Spotify Song Genre
…
## # A tibble: 6 x 2
##   playlist_genre     n
##   <chr>          <int>
## 1 edm             6043
## 2 latin           5155
## 3 pop             5507
## 4 r&b             5431
## 5 rap             5746
## 6 rock            4951

#counting the number of songs by their popularity ranking.
spotify %>% count(track_popularity)

## # A tibble: 101 x 2
##    track_popularity     n
##               <int> <int>
##  1                0  2703
##  2                1   575
##  3                2   387
##  4                3   321
##  5                4   240
##  6                5   240
##  7                6   192
##  8                7   189
##  9                8   201
## 10                9   195
## # ... with 91 more rows
…
